"name","lastname","email","custom_ID_A","custom_ID_G","peer1_grade_1","peer1_grade_2","peer1_grade_3","peer1_grade_4","peer1_grade_5","peer1_grade_6","peer1_removed_points","peer1_comments","peer1_final_grade","peer2_grade_1","peer2_grade_2","peer2_grade_3","peer2_grade_4","peer2_grade_5","peer2_grade_6","peer2_removed_points","peer2_comments","peer2_final_grade","avg grade"
"Theodore","von Kármán","test1@example.com","A94424401","G22319408",0,0,0,0,0,0,0,"All zeroes (default values) in this form",0,2,1.5,1.5,2,1.5,1.5,0,"A comment with several lines: first line | second line | third line | fourth line",10,5
"Osborne","Reynolds","test2@example.com","A90692381","G03091738","None","None","None","None","None","None","None","None","None",1.5,1.5,1.5,2,1.5,1.5,0,"A comment with double quotes ""hello"" and single quotes 'hello'",9.5,9.5
"Ada","Lovelace","test3@example.com","A71313037","G85539397",0.5,0.5,0.5,0.5,0.5,0.5,-0.5,"Another comment",2.5,1,1,1.5,1.5,1,1,-0.5,"Hello",6.5,4.5
"Marie","Curie","test4@example.com","A22017094","G27383283",0.5,0.5,0.5,0.5,0.5,0.5,-0.5,"A comment with non-ASCII characters: à á Ö ö — «»",2.5,2,1.5,1.5,2,1.5,1.5,-2.5,"None",7.5,5
