first name,last name,email,custom_ID_A,custom_ID_G,XXlengthXX,XXwidthXX,XXareaXX,XXarea_doubledXX
Theodore,von Kármán,test1@example.com,A94424401,G22319408,13,13,169,676
Osborne,Reynolds,test2@example.com,A90692381,G03091738,11,14,154,616
Ada,Lovelace,test3@example.com,A71313037,G85539397,15,15,225,900
Marie,Curie,test4@example.com,A22017094,G27383283,14,10,140,560
