name,lastname,email,custom_ID_A,custom_ID_G,submitted,peer1_ID,peer2_ID
Theodore,von Kármán,test1@example.com,A94424401,G22319408,True,G03091738A,G85539397B
Osborne,Reynolds,test2@example.com,A90692381,G03091738,True,G22319408A,G27383283B
Ada,Lovelace,test3@example.com,A71313037,G85539397,True,G27383283A,G03091738B
Marie,Curie,test4@example.com,A22017094,G27383283,True,G85539397A,G22319408B
